…
After that individual parsing method can be baked into a new function

Reading files into R

library(tidyverse)
library(xml2)

corpus <- dir('../adv_elan_draft/corpus', pattern = 'eaf$', full.names = TRUE) %>%
  map(FRelan::read_eaf) %>%
  bind_rows() %>%
  select(token, participant, session_name, time_start, time_end, everything())

corpus

## # A tibble: 569 x 11
##      token participant                session_name time_start time_end
##      <chr>       <chr>                       <chr>      <dbl>    <dbl>
##  1      ме  MVF-F-1984 kpv_izva20140330-1-fragment          0     6086
##  2       ,  MVF-F-1984 kpv_izva20140330-1-fragment          0     6086
##  3 кӧнечнэ  MVF-F-1984 kpv_izva20140330-1-fragment          0     6086
##  4      же  MVF-F-1984 kpv_izva20140330-1-fragment          0     6086
##  5       ,  MVF-F-1984 kpv_izva20140330-1-fragment          0     6086
##  6     кык  MVF-F-1984 kpv_izva20140330-1-fragment          0     6086
##  7     лун  MVF-F-1984 kpv_izva20140330-1-fragment          0     6086
##  8    вӧлі  MVF-F-1984 kpv_izva20140330-1-fragment          0     6086
##  9       в  MVF-F-1984 kpv_izva20140330-1-fragment          0     6086
## 10    шоке  MVF-F-1984 kpv_izva20140330-1-fragment          0     6086
## # ... with 559 more rows, and 6 more variables: utterance <chr>,
## #   reference <chr>, filename <chr>, word <chr>, after <chr>, before <chr>
…
corpus_full <- left_join(corpus, metadata)
corpus_full

## # A tibble: 569 x 20
##      token participant                session_name time_start time_end
##      <chr>       <chr>                       <chr>      <dbl>    <dbl>
##  1      ме  MVF-F-1984 kpv_izva20140330-1-fragment          0     6086
##  2       ,  MVF-F-1984 kpv_izva20140330-1-fragment          0     6086
##  3 кӧнечнэ  MVF-F-1984 kpv_izva20140330-1-fragment          0     6086
##  4      же  MVF-F-1984 kpv_izva20140330-1-fragment          0     6086
##  5       ,  MVF-F-1984 kpv_izva20140330-1-fragment          0     6086
##  6     кык  MVF-F-1984 kpv_izva20140330-1-fragment          0     6086
##  7     лун  MVF-F-1984 kpv_izva20140330-1-fragment          0     6086
##  8    вӧлі  MVF-F-1984 kpv_izva20140330-1-fragment          0     6086
##  9       в  MVF-F-1984 kpv_izva20140330-1-fragment          0     6086
## 10    шоке  MVF-F-1984 kpv_izva20140330-1-fragment          0     6086
## # ... with 559 more rows, and 15 more variables: utterance <chr>,
## #   reference <chr>, filename <chr>, word <chr>, after <chr>,
## #   before <chr>, year_birth <chr>, year_rec <chr>, role <chr>, sex <chr>,
## #   session_address <chr>, session_country <chr>, session_location <chr>,
## #   education <chr>, name_full <chr>
…
