…
In earlier example we used read_eaf() function

Nice, but demands quite specific structure

Although customizable

There are also functions read_tier() and read_timeslot()

library(kableExtra)
library(FRelan)
read_tier(eaf_file = '~/github/test-corpus/kpv_izva20140330-1-fragment.eaf', 
          linguistic_type = 'wordT')

## # A tibble: 95 x 8
##    content annot_id ref_id participant         tier_id  type time_slot_1
##      <chr>    <chr>  <chr>       <chr>           <chr> <chr>       <chr>
##  1      Ме     a124     a6  MVF-F-1984 word@MVF-F-1984 wordT        <NA>
##  2       ,     a125     a6  MVF-F-1984 word@MVF-F-1984 wordT        <NA>
##  3 кӧнечнэ     a126     a6  MVF-F-1984 word@MVF-F-1984 wordT        <NA>
##  4      же     a127     a6  MVF-F-1984 word@MVF-F-1984 wordT        <NA>
##  5       ,     a128     a6  MVF-F-1984 word@MVF-F-1984 wordT        <NA>
##  6    вӧлі     a129     a6  MVF-F-1984 word@MVF-F-1984 wordT        <NA>
##  7     кык     a130     a6  MVF-F-1984 word@MVF-F-1984 wordT        <NA>
##  8     лун     a131     a6  MVF-F-1984 word@MVF-F-1984 wordT        <NA>
##  9       в     a132     a6  MVF-F-1984 word@MVF-F-1984 wordT        <NA>
## 10    шоке     a133     a6  MVF-F-1984 word@MVF-F-1984 wordT        <NA>
## # ... with 85 more rows, and 1 more variables: time_slot_2 <chr>
…
time_slots <- FRelan::read_timeslots(path_to_file)

corpus <- elan %>% 
  left_join(time_slots %>% rename(time_slot_1 = time_slot_id)) %>%
  rename(time_start = time_value) %>%
  left_join(time_slots %>% rename(time_slot_2 = time_slot_id)) %>%
  rename(time_end = time_value) %>%
  select(token, lemma, pos, participant, time_start, time_end, everything(), -starts_with('time_slot_'))

corpus

## # A tibble: 240 x 8
##    token lemma   pos participant time_start time_end
##    <chr> <chr> <chr>       <chr>      <dbl>    <dbl>
##  1     И     и    CC  NTP-M-1986        170     3730
##  2  эшшӧ  эшшӧ     _  NTP-M-1986        170     3730
##  3  ӧтик  ӧтик   Num  NTP-M-1986        170     3730
##  4   тор   тор     N  NTP-M-1986        170     3730
##  5     ,     ,   CLB  NTP-M-1986        170     3730
##  6   мый   мый    CS  NTP-M-1986        170     3730
##  7 тэнад    тэ  Pron  NTP-M-1986        170     3730
##  8     ,     ,   CLB  NTP-M-1986        170     3730
##  9 тэныд    тэ  Pron  NTP-M-1986        170     3730
## 10   мам   мам     N  NTP-M-1986        170     3730
## # ... with 230 more rows, and 2 more variables: ref <chr>, orth <chr>
…
Or:

dir(path = '~/github/test-corpus', pattern = '.+izva.+eaf$', full.names = TRUE)

## [1] "/Users/niko/github/test-corpus/kpv_izva20140330-1-fragment.eaf"      
## [2] "/Users/niko/github/test-corpus/kpv_izva20140404IgusevJA-fragment.eaf"

elan_files <- dir(path = '~/github/test-corpus', pattern = '.eaf$', full.names = TRUE)
elan_files %>% map(read_custom_eaf)

## [[1]]
## # A tibble: 95 x 9
##      token lemma   pos participant time_start time_end
##      <chr> <lgl> <lgl>       <chr>      <dbl>    <dbl>
##  1      Ме    NA    NA  MVF-F-1984          0     6086
##  2       ,    NA    NA  MVF-F-1984          0     6086
##  3 кӧнечнэ    NA    NA  MVF-F-1984          0     6086
##  4      же    NA    NA  MVF-F-1984          0     6086
##  5       ,    NA    NA  MVF-F-1984          0     6086
##  6    вӧлі    NA    NA  MVF-F-1984          0     6086
##  7     кык    NA    NA  MVF-F-1984          0     6086
##  8     лун    NA    NA  MVF-F-1984          0     6086
##  9       в    NA    NA  MVF-F-1984          0     6086
## 10    шоке    NA    NA  MVF-F-1984          0     6086
## # ... with 85 more rows, and 3 more variables: ref <chr>, orth <chr>,
## #   session_name <chr>
## 
## [[2]]
## # A tibble: 279 x 9
##      token lemma   pos participant time_start time_end
##      <chr> <lgl> <lgl>       <chr>      <dbl>    <dbl>
##  1  Значит    NA    NA  JAI-M-1939          0     6196
##  2       ,    NA    NA  JAI-M-1939          0     6196
##  3   турун    NA    NA  JAI-M-1939          0     6196
##  4      ми    NA    NA  JAI-M-1939          0     6196
##  5  пуктам    NA    NA  JAI-M-1939          0     6196
##  6    вӧлі    NA    NA  JAI-M-1939          0     6196
##  7 Кытшыль    NA    NA  JAI-M-1939          0     6196
##  8 коськын    NA    NA  JAI-M-1939          0     6196
##  9       ,    NA    NA  JAI-M-1939          0     6196
## 10   квайт    NA    NA  JAI-M-1939          0     6196
## # ... with 269 more rows, and 3 more variables: ref <chr>, orth <chr>,
## #   session_name <chr>
## 
## [[3]]
## # A tibble: 240 x 9
##    token lemma   pos participant time_start time_end
##    <chr> <chr> <chr>       <chr>      <dbl>    <dbl>
##  1     И     и    CC  NTP-M-1986        170     3730
##  2  эшшӧ  эшшӧ     _  NTP-M-1986        170     3730
##  3  ӧтик  ӧтик   Num  NTP-M-1986        170     3730
##  4   тор   тор     N  NTP-M-1986        170     3730
##  5     ,     ,   CLB  NTP-M-1986        170     3730
##  6   мый   мый    CS  NTP-M-1986        170     3730
##  7 тэнад    тэ  Pron  NTP-M-1986        170     3730
##  8     ,     ,   CLB  NTP-M-1986        170     3730
##  9 тэныд    тэ  Pron  NTP-M-1986        170     3730
## 10   мам   мам     N  NTP-M-1986        170     3730
## # ... with 230 more rows, and 3 more variables: ref <chr>, orth <chr>,
## #   session_name <chr>
…
