…
    higher_level_folder
        testcorpus
        elan_lectures
        praat-stuff

Examples
--------

-   Reading ELAN files or individual tiers

<!-- -->

    FRelan::read_eaf(eaf_file = '../testcorpus/kpv_udo20120330SazinaJS-encounter.eaf')

    ## # A tibble: 221 x 11
    ##    token                                                       utterance
    ##  * <chr>                                                           <chr>
    ##  1     и И эшшӧ ӧтик тор, мый тэнад, тэныд мам висьталіс интереснӧй юӧр,
    ##  2  эшшӧ И эшшӧ ӧтик тор, мый тэнад, тэныд мам висьталіс интереснӧй юӧр,
    ##  3  ӧтик И эшшӧ ӧтик тор, мый тэнад, тэныд мам висьталіс интереснӧй юӧр,
    ##  4   тор И эшшӧ ӧтик тор, мый тэнад, тэныд мам висьталіс интереснӧй юӧр,
    ##  5     , И эшшӧ ӧтик тор, мый тэнад, тэныд мам висьталіс интереснӧй юӧр,
    ##  6   мый И эшшӧ ӧтик тор, мый тэнад, тэныд мам висьталіс интереснӧй юӧр,
    ##  7 тэнад И эшшӧ ӧтик тор, мый тэнад, тэныд мам висьталіс интереснӧй юӧр,
    ##  8     , И эшшӧ ӧтик тор, мый тэнад, тэныд мам висьталіс интереснӧй юӧр,
    ##  9 тэныд И эшшӧ ӧтик тор, мый тэнад, тэныд мам висьталіс интереснӧй юӧр,
    ## 10   мам И эшшӧ ӧтик тор, мый тэнад, тэныд мам висьталіс интереснӧй юӧр,
    ## # ... with 211 more rows, and 9 more variables: reference <chr>,
    ## #   participant <chr>, time_start <dbl>, time_end <dbl>,
    ## #   session_name <chr>, filename <chr>, word <chr>, after <chr>,
    ## #   before <chr>
…
    ## Joining, by = c("ref_id", "participant")

    ## Joining, by = c("participant", "orth_id")

    ## Joining, by = c("participant", "token_id")

    ## Joining, by = c("participant", "lemma_id")

    ## Joining, by = "time_slot_1"

    ## Joining, by = "time_slot_2"

    ## [[1]]
    ## # A tibble: 95 x 9
    ##      token lemma   pos participant time_start time_end
    ##      <chr> <lgl> <lgl>       <chr>      <dbl>    <dbl>
    ##  1      Ме    NA    NA  MVF-F-1984          0     6086
    ##  2       ,    NA    NA  MVF-F-1984          0     6086
    ##  3 кӧнечнэ    NA    NA  MVF-F-1984          0     6086
    ##  4      же    NA    NA  MVF-F-1984          0     6086
    ##  5       ,    NA    NA  MVF-F-1984          0     6086
    ##  6    вӧлі    NA    NA  MVF-F-1984          0     6086
    ##  7     кык    NA    NA  MVF-F-1984          0     6086
    ##  8     лун    NA    NA  MVF-F-1984          0     6086
    ##  9       в    NA    NA  MVF-F-1984          0     6086
    ## 10    шоке    NA    NA  MVF-F-1984          0     6086
    ## # ... with 85 more rows, and 3 more variables: ref <chr>, orth <chr>,
    ## #   filename <chr>
    ## 
    ## [[2]]
    ## # A tibble: 279 x 9
    ##      token lemma   pos participant time_start time_end
    ##      <chr> <lgl> <lgl>       <chr>      <dbl>    <dbl>
    ##  1  Значит    NA    NA  JAI-M-1939          0     6196
    ##  2       ,    NA    NA  JAI-M-1939          0     6196
    ##  3   турун    NA    NA  JAI-M-1939          0     6196
    ##  4      ми    NA    NA  JAI-M-1939          0     6196
    ##  5  пуктам    NA    NA  JAI-M-1939          0     6196
    ##  6    вӧлі    NA    NA  JAI-M-1939          0     6196
    ##  7 Кытшыль    NA    NA  JAI-M-1939          0     6196
    ##  8 коськын    NA    NA  JAI-M-1939          0     6196
    ##  9       ,    NA    NA  JAI-M-1939          0     6196
    ## 10   квайт    NA    NA  JAI-M-1939          0     6196
    ## # ... with 269 more rows, and 3 more variables: ref <chr>, orth <chr>,
    ## #   filename <chr>
    ## 
    ## [[3]]
    ## # A tibble: 240 x 9
    ##    token lemma   pos participant time_start time_end
    ##    <chr> <chr> <chr>       <chr>      <dbl>    <dbl>
    ##  1     И     и    CC  NTP-M-1986        170     3730
    ##  2  эшшӧ  эшшӧ     _  NTP-M-1986        170     3730
    ##  3  ӧтик  ӧтик   Num  NTP-M-1986        170     3730
    ##  4   тор   тор     N  NTP-M-1986        170     3730
    ##  5     ,     ,   CLB  NTP-M-1986        170     3730
    ##  6   мый   мый    CS  NTP-M-1986        170     3730
    ##  7 тэнад    тэ  Pron  NTP-M-1986        170     3730
    ##  8     ,     ,   CLB  NTP-M-1986        170     3730
    ##  9 тэныд    тэ  Pron  NTP-M-1986        170     3730
    ## 10   мам   мам     N  NTP-M-1986        170     3730
    ## # ... with 230 more rows, and 3 more variables: ref <chr>, orth <chr>,
    ## #   filename <chr>
…
